^D:\ONEDRIVE\UNI\MATHS AND TECH\ASSIGNMENT\POSTPROCESSPOLY\DEBUG\BASEMATH.OBJ|D:\ONEDRIVE\UNI\MATHS AND TECH\ASSIGNMENT\POSTPROCESSPOLY\DEBUG\CAMERA.OBJ|D:\ONEDRIVE\UNI\MATHS AND TECH\ASSIGNMENT\POSTPROCESSPOLY\DEBUG\CFATALEXCEPTION.OBJ|D:\ONEDRIVE\UNI\MATHS AND TECH\ASSIGNMENT\POSTPROCESSPOLY\DEBUG\CHASHTABLE.OBJ|D:\ONEDRIVE\UNI\MATHS AND TECH\ASSIGNMENT\POSTPROCESSPOLY\DEBUG\CIMPORTXFILE.OBJ|D:\ONEDRIVE\UNI\MATHS AND TECH\ASSIGNMENT\POSTPROCESSPOLY\DEBUG\CMATRIX2X2.OBJ|D:\ONEDRIVE\UNI\MATHS AND TECH\ASSIGNMENT\POSTPROCESSPOLY\DEBUG\CMATRIX3X3.OBJ|D:\ONEDRIVE\UNI\MATHS AND TECH\ASSIGNMENT\POSTPROCESSPOLY\DEBUG\CMATRIX4X4.OBJ|D:\ONEDRIVE\UNI\MATHS AND TECH\ASSIGNMENT\POSTPROCESSPOLY\DEBUG\CPARSELEVEL.OBJ|D:\ONEDRIVE\UNI\MATHS AND TECH\ASSIGNMENT\POSTPROCESSPOLY\DEBUG\CPARSEXML.OBJ|D:\ONEDRIVE\UNI\MATHS AND TECH\ASSIGNMENT\POSTPROCESSPOLY\DEBUG\CQUATERNION.OBJ|D:\ONEDRIVE\UNI\MATHS AND TECH\ASSIGNMENT\POSTPROCESSPOLY\DEBUG\CQUATTRANSFORM.OBJ|D:\ONEDRIVE\UNI\MATHS AND TECH\ASSIGNMENT\POSTPROCESSPOLY\DEBUG\CTIMER.OBJ|D:\ONEDRIVE\UNI\MATHS AND TECH\ASSIGNMENT\POSTPROCESSPOLY\DEBUG\CVECTOR2.OBJ|D:\ONEDRIVE\UNI\MATHS AND TECH\ASSIGNMENT\POSTPROCESSPOLY\DEBUG\CVECTOR3.OBJ|D:\ONEDRIVE\UNI\MATHS AND TECH\ASSIGNMENT\POSTPROCESSPOLY\DEBUG\CVECTOR4.OBJ|D:\ONEDRIVE\UNI\MATHS AND TECH\ASSIGNMENT\POSTPROCESSPOLY\DEBUG\ENTITY.OBJ|D:\ONEDRIVE\UNI\MATHS AND TECH\ASSIGNMENT\POSTPROCESSPOLY\DEBUG\ENTITYMANAGER.OBJ|D:\ONEDRIVE\UNI\MATHS AND TECH\ASSIGNMENT\POSTPROCESSPOLY\DEBUG\INPUT.OBJ|D:\ONEDRIVE\UNI\MATHS AND TECH\ASSIGNMENT\POSTPROCESSPOLY\DEBUG\LIGHT.OBJ|D:\ONEDRIVE\UNI\MATHS AND TECH\ASSIGNMENT\POSTPROCESSPOLY\DEBUG\MAINAPP.OBJ|D:\ONEDRIVE\UNI\MATHS AND TECH\ASSIGNMENT\POSTPROCESSPOLY\DEBUG\MATHIO.OBJ|D:\ONEDRIVE\UNI\MATHS AND TECH\ASSIGNMENT\POSTPROCESSPOLY\DEBUG\MESH.OBJ|D:\ONEDRIVE\UNI\MATHS AND TECH\ASSIGNMENT\POSTPROCESSPOLY\DEBUG\MESSENGER.OBJ|D:\ONEDRIVE\UNI\MATHS AND TECH\ASSIGNMENT\POSTPROCESSPOLY\DEBUG\MSDEFINES.OBJ|D:\ONEDRIVE\UNI\MATHS AND TECH\ASSIGNMENT\POSTPROCESSPOLY\DEBUG\PLANETENTITY.OBJ|D:\ONEDRIVE\UNI\MATHS AND TECH\ASSIGNMENT\POSTPROCESSPOLY\DEBUG\POSTPROCESSPOLY.OBJ|D:\ONEDRIVE\UNI\MATHS AND TECH\ASSIGNMENT\POSTPROCESSPOLY\DEBUG\RENDERMETHOD.OBJ|D:\ONEDRIVE\UNI\MATHS AND TECH\ASSIGNMENT\POSTPROCESSPOLY\DEBUG\UTILITY.OBJ
C:\WINDOWS\GLOBALIZATION\SORTING\SORTDEFAULT.NLS
C:\PROGRAM FILES (X86)\EXPAT 2.2.0\BIN\LIBEXPAT.LIB
C:\PROGRAM FILES (X86)\MICROSOFT DIRECTX SDK (JUNE 2010)\LIB\X86\D3D10.LIB
C:\PROGRAM FILES (X86)\MICROSOFT DIRECTX SDK (JUNE 2010)\LIB\X86\D3DX10D.LIB
C:\PROGRAM FILES (X86)\MICROSOFT DIRECTX SDK (JUNE 2010)\LIB\X86\D3DX9D.LIB
C:\PROGRAM FILES (X86)\MICROSOFT DIRECTX SDK (JUNE 2010)\LIB\X86\D3DXOF.LIB
C:\PROGRAM FILES (X86)\MICROSOFT DIRECTX SDK (JUNE 2010)\LIB\X86\DXGUID.LIB
C:\PROGRAM FILES (X86)\WINDOWS KITS\8.1\LIB\WINV6.3\UM\X86\WINMM.LIB
C:\PROGRAM FILES (X86)\WINDOWS KITS\8.1\LIB\WINV6.3\UM\X86\KERNEL32.LIB
C:\PROGRAM FILES (X86)\WINDOWS KITS\8.1\LIB\WINV6.3\UM\X86\USER32.LIB
C:\PROGRAM FILES (X86)\WINDOWS KITS\8.1\LIB\WINV6.3\UM\X86\GDI32.LIB
C:\PROGRAM FILES (X86)\WINDOWS KITS\8.1\LIB\WINV6.3\UM\X86\WINSPOOL.LIB
C:\PROGRAM FILES (X86)\WINDOWS KITS\8.1\LIB\WINV6.3\UM\X86\COMDLG32.LIB
C:\PROGRAM FILES (X86)\WINDOWS KITS\8.1\LIB\WINV6.3\UM\X86\ADVAPI32.LIB
C:\PROGRAM FILES (X86)\WINDOWS KITS\8.1\LIB\WINV6.3\UM\X86\SHELL32.LIB
C:\PROGRAM FILES (X86)\WINDOWS KITS\8.1\LIB\WINV6.3\UM\X86\OLE32.LIB
C:\PROGRAM FILES (X86)\WINDOWS KITS\8.1\LIB\WINV6.3\UM\X86\OLEAUT32.LIB
C:\PROGRAM FILES (X86)\WINDOWS KITS\8.1\LIB\WINV6.3\UM\X86\UUID.LIB
C:\PROGRAM FILES (X86)\WINDOWS KITS\8.1\LIB\WINV6.3\UM\X86\ODBC32.LIB
C:\PROGRAM FILES (X86)\WINDOWS KITS\8.1\LIB\WINV6.3\UM\X86\ODBCCP32.LIB
D:\ONEDRIVE\UNI\MATHS AND TECH\ASSIGNMENT\POSTPROCESSPOLY\DEBUG\CAMERA.OBJ
D:\ONEDRIVE\UNI\MATHS AND TECH\ASSIGNMENT\POSTPROCESSPOLY\DEBUG\ENTITY.OBJ
D:\ONEDRIVE\UNI\MATHS AND TECH\ASSIGNMENT\POSTPROCESSPOLY\DEBUG\ENTITYMANAGER.OBJ
D:\ONEDRIVE\UNI\MATHS AND TECH\ASSIGNMENT\POSTPROCESSPOLY\DEBUG\LIGHT.OBJ
D:\ONEDRIVE\UNI\MATHS AND TECH\ASSIGNMENT\POSTPROCESSPOLY\DEBUG\MESSENGER.OBJ
D:\ONEDRIVE\UNI\MATHS AND TECH\ASSIGNMENT\POSTPROCESSPOLY\DEBUG\PLANETENTITY.OBJ
D:\ONEDRIVE\UNI\MATHS AND TECH\ASSIGNMENT\POSTPROCESSPOLY\DEBUG\CFATALEXCEPTION.OBJ
D:\ONEDRIVE\UNI\MATHS AND TECH\ASSIGNMENT\POSTPROCESSPOLY\DEBUG\CHASHTABLE.OBJ
D:\ONEDRIVE\UNI\MATHS AND TECH\ASSIGNMENT\POSTPROCESSPOLY\DEBUG\CTIMER.OBJ
D:\ONEDRIVE\UNI\MATHS AND TECH\ASSIGNMENT\POSTPROCESSPOLY\DEBUG\MSDEFINES.OBJ
D:\ONEDRIVE\UNI\MATHS AND TECH\ASSIGNMENT\POSTPROCESSPOLY\DEBUG\UTILITY.OBJ
D:\ONEDRIVE\UNI\MATHS AND TECH\ASSIGNMENT\POSTPROCESSPOLY\DEBUG\MESH.OBJ
D:\ONEDRIVE\UNI\MATHS AND TECH\ASSIGNMENT\POSTPROCESSPOLY\DEBUG\RENDERMETHOD.OBJ
D:\ONEDRIVE\UNI\MATHS AND TECH\ASSIGNMENT\POSTPROCESSPOLY\DEBUG\CIMPORTXFILE.OBJ
D:\ONEDRIVE\UNI\MATHS AND TECH\ASSIGNMENT\POSTPROCESSPOLY\DEBUG\INPUT.OBJ
D:\ONEDRIVE\UNI\MATHS AND TECH\ASSIGNMENT\POSTPROCESSPOLY\DEBUG\BASEMATH.OBJ
D:\ONEDRIVE\UNI\MATHS AND TECH\ASSIGNMENT\POSTPROCESSPOLY\DEBUG\CMATRIX2X2.OBJ
D:\ONEDRIVE\UNI\MATHS AND TECH\ASSIGNMENT\POSTPROCESSPOLY\DEBUG\CMATRIX3X3.OBJ
D:\ONEDRIVE\UNI\MATHS AND TECH\ASSIGNMENT\POSTPROCESSPOLY\DEBUG\CMATRIX4X4.OBJ
D:\ONEDRIVE\UNI\MATHS AND TECH\ASSIGNMENT\POSTPROCESSPOLY\DEBUG\CQUATERNION.OBJ
D:\ONEDRIVE\UNI\MATHS AND TECH\ASSIGNMENT\POSTPROCESSPOLY\DEBUG\CQUATTRANSFORM.OBJ
D:\ONEDRIVE\UNI\MATHS AND TECH\ASSIGNMENT\POSTPROCESSPOLY\DEBUG\CVECTOR2.OBJ
D:\ONEDRIVE\UNI\MATHS AND TECH\ASSIGNMENT\POSTPROCESSPOLY\DEBUG\CVECTOR3.OBJ
D:\ONEDRIVE\UNI\MATHS AND TECH\ASSIGNMENT\POSTPROCESSPOLY\DEBUG\CVECTOR4.OBJ
D:\ONEDRIVE\UNI\MATHS AND TECH\ASSIGNMENT\POSTPROCESSPOLY\DEBUG\MATHIO.OBJ
D:\ONEDRIVE\UNI\MATHS AND TECH\ASSIGNMENT\POSTPROCESSPOLY\DEBUG\CPARSELEVEL.OBJ
D:\ONEDRIVE\UNI\MATHS AND TECH\ASSIGNMENT\POSTPROCESSPOLY\DEBUG\CPARSEXML.OBJ
D:\ONEDRIVE\UNI\MATHS AND TECH\ASSIGNMENT\POSTPROCESSPOLY\DEBUG\MAINAPP.OBJ
D:\ONEDRIVE\UNI\MATHS AND TECH\ASSIGNMENT\POSTPROCESSPOLY\DEBUG\POSTPROCESSPOLY.OBJ
C:\WINDOWS\SYSTEM32\TZRES.DLL
C:\PROGRAM FILES (X86)\MICROSOFT VISUAL STUDIO 14.0\VC\LIB\LIBCPMTD.LIB
C:\PROGRAM FILES (X86)\WINDOWS KITS\8.1\LIB\WINV6.3\UM\X86\SHLWAPI.LIB
C:\PROGRAM FILES (X86)\MICROSOFT VISUAL STUDIO 14.0\VC\LIB\LIBCMTD.LIB
C:\PROGRAM FILES (X86)\MICROSOFT VISUAL STUDIO 14.0\VC\LIB\OLDNAMES.LIB
C:\PROGRAM FILES (X86)\MICROSOFT VISUAL STUDIO 14.0\VC\ATLMFC\LIB\ATLS.LIB
D:\ONEDRIVE\UNI\MATHS AND TECH\ASSIGNMENT\POSTPROCESSPOLY\SOURCE\ANTTWEAKBAR\LIB\ANTTWEAKBAR.LIB
C:\PROGRAM FILES (X86)\MICROSOFT VISUAL STUDIO 14.0\VC\LIB\LIBVCRUNTIMED.LIB
C:\PROGRAM FILES (X86)\WINDOWS KITS\10\LIB\10.0.10240.0\UCRT\X86\LIBUCRTD.LIB
